<?xml version="1.0" encoding="UTF-8" standalone="no"?>
<svg xmlns:xlink="http://www.w3.org/1999/xlink" height="3.3px" width="2.7px" xmlns="http://www.w3.org/2000/svg">
  <g transform="matrix(1.0, 0.0, 0.0, 1.0, -1.85, 13.1)">
    <path d="M2.85 -11.1 Q2.85 -13.1 4.25 -13.1 4.5 -13.1 4.55 -12.75 4.55 -11.5 2.85 -11.1 M2.65 -10.25 L2.6 -9.9 2.25 -9.8 Q1.85 -9.8 1.85 -10.15 1.85 -10.65 2.35 -10.65 2.65 -10.65 2.65 -10.25" fill="#ffffff" fill-rule="evenodd" stroke="none"/>
  </g>
</svg>
