<?xml version="1.0" encoding="UTF-8" standalone="no"?>
<svg xmlns:xlink="http://www.w3.org/1999/xlink" height="37.85px" width="54.65px" xmlns="http://www.w3.org/2000/svg">
  <g transform="matrix(1.0, 0.0, 0.0, 1.0, -2.15, -3.5)">
    <path d="M48.8 6.7 Q48.45 6.3 48.15 6.2 L47.15 5.7 Q46.25 5.25 45.6 5.35 L44.8 5.5 Q44.35 5.6 44.15 5.85 44.0 5.9 43.85 6.05 L43.8 6.05 42.55 5.85 42.0 6.25 41.05 6.15 38.4 5.95 37.95 5.9 38.15 5.85 Q38.7 5.45 39.05 5.4 L41.45 5.7 42.55 5.85 44.15 4.75 44.2 4.65 43.15 4.65 42.3 4.7 40.8 4.9 39.4 5.25 39.35 5.25 39.05 5.4 38.1 5.3 Q40.2 4.3 42.6 4.25 L42.85 4.25 43.75 4.25 46.4 4.65 47.55 5.35 48.7 6.35 48.9 6.7 48.9 6.75 48.8 6.7 M43.35 6.45 L42.7 6.9 41.75 7.85 40.15 7.5 39.45 8.2 39.1 8.2 35.4 7.7 34.05 8.8 32.85 8.7 33.75 8.15 34.35 7.7 35.05 7.7 35.4 7.7 36.1 7.2 35.0 7.25 36.8 5.95 37.95 5.9 36.1 7.2 36.45 7.15 39.7 7.4 40.15 7.5 40.55 7.25 42.0 6.25 43.35 6.45 M41.05 8.5 L39.85 9.75 38.4 9.45 Q38.1 9.55 38.0 9.75 L37.65 10.15 39.15 10.55 38.95 10.75 Q38.3 11.45 39.0 12.6 L40.65 14.05 40.85 14.25 41.8 14.85 45.9 16.95 50.9 18.85 51.8 19.2 55.0 20.3 55.45 20.5 55.45 22.25 55.4 22.4 51.0 20.25 49.75 19.6 47.65 18.5 46.8 18.1 44.6 16.95 44.45 16.9 44.0 16.65 Q42.55 15.8 41.9 15.65 L41.35 15.35 39.25 14.05 39.05 13.9 38.75 13.75 37.85 13.3 36.45 12.7 35.05 12.4 31.4 11.55 28.6 12.7 25.15 13.9 23.15 14.35 21.2 14.45 Q18.75 14.35 16.9 13.6 16.0 13.15 15.45 12.6 L14.9 11.95 13.35 12.45 8.7 14.2 7.35 14.7 7.3 14.75 Q8.1 13.7 9.15 12.8 L9.15 12.7 10.4 11.65 11.05 11.4 11.3 11.4 Q10.1 12.1 9.45 13.15 L9.4 13.2 9.7 13.05 Q10.25 12.65 10.9 12.45 11.95 11.9 13.0 11.65 L14.75 10.75 14.8 10.55 15.35 10.45 16.65 10.3 Q16.45 11.2 16.8 11.75 17.4 12.75 18.2 13.15 L20.4 13.6 23.05 13.5 24.75 13.25 25.25 13.05 26.75 12.45 30.35 10.4 Q31.1 9.75 31.8 9.45 L33.2 9.45 Q33.55 9.15 34.05 8.8 L38.0 9.4 38.4 9.45 Q38.9 8.65 39.45 8.2 L41.05 8.5 M42.85 34.65 Q43.4 34.8 44.2 35.25 L45.4 35.65 46.1 35.9 46.4 36.1 48.8 38.2 50.05 39.3 49.8 39.6 48.05 40.0 Q47.0 38.25 44.75 36.55 L43.25 35.5 Q42.0 34.7 39.25 34.05 L35.7 33.3 28.75 31.7 19.6 30.7 12.85 31.4 Q9.6 32.2 4.9 34.2 L4.7 33.5 4.7 33.4 5.05 33.2 5.05 33.15 5.5 32.75 5.85 32.65 6.35 32.35 6.45 32.3 Q7.55 31.6 8.95 31.25 9.05 31.1 9.1 31.2 L9.3 30.05 Q9.5 28.9 9.95 27.95 L11.35 27.5 Q10.9 28.35 10.95 29.05 L10.9 29.4 11.2 29.3 Q11.75 28.85 13.05 28.85 L16.15 28.4 16.5 28.4 17.35 28.35 19.9 28.25 26.9 28.7 Q27.1 27.65 26.15 26.4 L27.15 26.6 28.85 26.95 30.5 29.95 30.65 30.9 30.65 31.15 33.9 31.9 37.55 32.8 39.8 33.55 41.2 34.0 41.25 34.0 42.85 34.65 M31.95 10.55 L36.15 11.3 36.7 11.4 37.65 10.15 37.25 10.05 33.5 9.5 33.2 9.45 32.4 10.1 31.95 10.55 M13.75 9.25 L15.25 8.35 15.55 8.25 16.55 7.75 Q19.5 6.35 22.05 6.35 L22.15 6.35 22.35 6.35 19.2 7.45 18.65 7.75 Q17.85 8.1 17.35 8.8 L16.25 8.9 16.2 9.0 15.95 9.25 15.3 9.35 14.15 9.45 12.25 10.7 11.15 11.0 Q12.05 10.25 13.1 9.65 L14.15 9.45 14.3 9.35 14.65 9.1 13.75 9.25 M17.05 9.15 Q16.85 9.4 16.8 9.9 L15.35 10.05 15.25 10.05 15.1 10.1 Q15.15 9.95 15.35 9.95 L15.95 9.25 17.05 9.15 M24.7 23.05 L23.0 23.0 21.5 23.0 Q19.7 22.25 17.6 22.35 L17.1 22.4 17.0 22.4 16.95 22.4 16.85 22.35 16.6 22.4 16.5 22.4 15.95 22.5 Q15.0 22.85 14.2 23.7 13.55 23.7 13.05 24.0 L12.3 24.15 Q13.8 22.55 15.85 22.0 L16.95 21.75 17.45 21.7 Q21.5 21.25 24.7 23.05 M23.55 24.05 L20.5 23.85 20.2 23.85 19.85 23.55 18.9 23.05 21.5 23.0 Q22.5 23.25 23.55 24.05 L23.85 24.05 24.5 24.1 26.45 24.35 27.05 24.8 27.95 25.75 25.4 25.55 24.3 24.6 23.75 24.2 23.55 24.05 M16.25 8.9 L16.9 8.2 16.6 8.2 15.3 8.75 14.65 9.1 15.3 9.0 16.25 8.9 M11.3 11.4 L11.65 11.15 Q11.9 10.95 12.25 10.7 L15.1 10.1 14.8 10.55 11.3 11.4 M15.1 24.15 Q14.2 24.15 13.5 24.5 L12.8 25.2 11.9 26.55 13.65 26.05 Q13.3 26.55 13.3 26.8 L13.35 27.05 11.35 27.5 11.9 26.55 10.3 27.15 11.2 25.6 11.65 24.95 12.8 24.6 13.5 24.5 Q13.8 23.95 14.2 23.7 L15.8 23.4 15.1 24.15 M16.25 30.1 L19.65 30.1 27.75 30.65 Q27.05 29.95 26.7 29.9 L23.35 29.2 Q20.9 28.7 17.35 29.1 L11.5 29.95 10.75 30.4 11.5 30.3 16.25 30.1 M22.0 26.15 L21.65 25.3 Q22.2 25.15 22.75 25.3 L22.9 25.3 25.4 25.55 26.15 26.4 22.75 26.2 22.0 26.15" fill="#cd9c23" fill-rule="evenodd" stroke="none"/>
    <path d="M48.8 6.7 L48.35 6.4 47.9 6.15 46.6 5.85 Q44.8 5.75 42.25 8.85 39.7 11.7 40.25 12.8 40.8 13.9 43.6 15.25 L48.15 17.15 Q48.7 17.25 51.65 18.6 L55.05 19.65 55.0 19.2 56.1 20.05 56.55 20.65 56.65 20.8 56.75 21.4 56.8 22.1 56.8 22.95 56.8 23.0 56.55 22.95 55.35 22.45 55.4 22.4 55.45 22.25 55.45 20.5 55.0 20.3 51.8 19.2 50.9 18.85 45.9 16.95 41.8 14.85 40.85 14.25 40.65 14.05 39.0 12.6 Q38.3 11.45 38.95 10.75 L39.15 10.55 39.85 9.75 41.05 8.5 41.05 8.4 41.75 7.85 42.7 6.9 43.35 6.45 43.85 6.05 Q44.0 5.9 44.15 5.85 44.35 5.6 44.8 5.5 L45.6 5.35 Q46.25 5.25 47.15 5.7 L48.15 6.2 Q48.45 6.3 48.8 6.7 M49.95 40.65 L49.5 41.05 Q49.4 41.15 49.45 41.35 L47.15 40.55 46.8 39.15 44.45 37.55 Q41.85 36.0 38.05 34.75 32.55 32.7 24.9 32.1 L13.3 32.6 5.9 34.7 4.7 35.1 4.25 35.65 4.2 35.3 Q3.8 34.25 3.9 33.85 L4.7 33.4 4.7 33.5 4.9 34.2 Q9.6 32.2 12.85 31.4 L19.6 30.7 28.75 31.7 35.7 33.3 39.25 34.05 Q42.0 34.7 43.25 35.5 L44.75 36.55 Q47.0 38.25 48.05 40.0 L49.8 39.6 49.75 39.65 49.9 40.45 49.95 40.65 M6.8 14.55 L6.9 14.3 Q7.2 13.7 8.7 12.2 9.5 11.2 12.1 9.6 14.25 8.15 16.35 7.2 18.35 6.2 20.0 6.1 21.35 5.9 22.55 6.1 L22.75 6.1 22.75 6.2 22.4 6.35 22.0 6.6 Q18.65 8.0 18.0 8.8 17.75 8.9 17.5 9.55 L17.15 10.55 Q17.15 11.75 18.75 12.35 L23.55 12.5 Q26.65 12.05 31.4 8.8 35.75 5.7 37.45 4.9 38.4 4.3 40.5 3.85 L42.9 3.55 43.25 3.55 43.9 3.6 Q45.3 3.65 46.75 4.5 L49.2 6.65 49.2 6.9 48.9 6.7 48.7 6.35 47.55 5.35 46.4 4.65 43.75 4.25 42.85 4.25 42.6 4.25 Q40.2 4.3 38.1 5.3 37.55 5.4 37.15 5.8 36.9 5.8 36.8 5.95 L35.0 7.25 34.35 7.7 33.75 8.15 32.85 8.7 31.8 9.45 Q31.1 9.75 30.35 10.4 L26.75 12.45 25.25 13.05 24.75 13.25 23.05 13.5 20.4 13.6 18.2 13.15 Q17.4 12.75 16.8 11.75 16.45 11.2 16.65 10.3 L16.65 10.2 16.8 9.9 Q16.85 9.4 17.05 9.15 L17.35 8.8 Q17.85 8.1 18.65 7.75 L19.2 7.45 22.35 6.35 22.15 6.35 22.05 6.35 Q19.5 6.35 16.55 7.75 L15.55 8.25 15.25 8.35 13.75 9.25 Q13.35 9.4 13.1 9.65 12.05 10.25 11.15 11.0 L10.4 11.65 9.15 12.7 9.15 12.8 Q8.1 13.7 7.3 14.75 L7.05 14.85 6.8 14.55" fill="#624500" fill-rule="evenodd" stroke="none"/>
    <path d="M42.55 5.85 L41.45 5.7 39.05 5.4 39.35 5.25 39.4 5.25 40.8 4.9 42.3 4.7 43.15 4.65 44.2 4.65 44.15 4.75 42.55 5.85 M37.95 5.9 L38.4 5.95 41.05 6.15 42.0 6.25 40.55 7.25 40.15 7.5 39.7 7.4 36.45 7.15 36.1 7.2 37.95 5.9 M26.15 26.4 Q27.1 27.65 26.9 28.7 L19.9 28.25 17.35 28.35 16.5 28.4 16.15 28.4 13.05 28.85 Q11.75 28.85 11.2 29.3 L10.9 29.4 10.95 29.05 Q10.9 28.35 11.35 27.5 L13.35 27.05 13.3 26.8 Q13.3 26.55 13.65 26.05 L16.05 25.6 21.65 25.3 20.2 23.85 15.95 24.05 15.1 24.15 14.95 24.3 Q13.95 25.3 13.65 26.05 L11.9 26.55 12.8 25.2 13.5 24.5 Q14.2 24.15 15.1 24.15 L15.8 23.4 14.2 23.7 Q15.0 22.85 15.95 22.5 L16.5 22.4 16.6 22.4 16.85 22.35 16.95 22.4 17.0 22.4 17.1 22.4 Q16.6 22.5 15.9 23.25 15.8 23.2 15.8 23.4 15.8 23.25 15.9 23.35 L18.9 23.05 19.85 23.55 20.2 23.85 20.5 23.85 23.55 24.05 23.75 24.2 24.3 24.6 25.4 25.55 22.9 25.3 22.75 25.3 Q22.2 25.15 21.65 25.3 L22.0 26.15 22.75 26.2 26.15 26.4 M34.05 8.8 L35.4 7.7 39.1 8.2 39.45 8.2 Q38.9 8.65 38.4 9.45 L38.0 9.4 34.05 8.8 M31.95 10.55 L32.4 10.1 33.2 9.45 33.5 9.5 37.25 10.05 37.65 10.15 36.7 11.4 36.15 11.3 31.95 10.55 M14.8 10.55 L14.75 10.75 13.0 11.65 Q11.95 11.9 10.9 12.45 10.25 12.65 9.7 13.05 L9.4 13.2 9.45 13.15 Q10.1 12.1 11.3 11.4 L14.8 10.55 M17.6 22.35 Q19.7 22.25 21.5 23.0 L18.9 23.05 17.6 22.35 M12.25 10.7 L14.15 9.45 15.3 9.35 15.95 9.25 15.35 9.95 Q15.15 9.95 15.1 10.1 L12.25 10.7 M16.25 8.9 L15.3 9.0 14.65 9.1 15.3 8.75 16.6 8.2 16.9 8.2 16.25 8.9 M16.25 30.1 L11.5 30.3 10.75 30.4 11.5 29.95 17.35 29.1 Q20.9 28.7 23.35 29.2 L26.7 29.9 Q27.05 29.95 27.75 30.65 L19.65 30.1 16.25 30.1 M22.0 26.15 L21.95 26.15 16.05 26.55 13.35 27.05 13.75 27.35 15.05 27.4 16.15 27.4 19.8 27.35 20.75 27.35 22.0 27.25 22.0 26.6 22.0 26.15" fill="#f7c038" fill-rule="evenodd" stroke="none"/>
    <path d="M43.85 6.05 L43.35 6.45 42.0 6.25 42.55 5.85 43.8 6.05 43.85 6.05 M41.75 7.85 L41.05 8.4 41.05 8.5 39.45 8.2 40.15 7.5 41.75 7.85 M39.85 9.75 L39.15 10.55 37.65 10.15 38.0 9.75 Q38.1 9.55 38.4 9.45 L39.85 9.75 M39.05 5.4 Q38.7 5.45 38.15 5.85 L37.95 5.9 36.8 5.95 Q36.9 5.8 37.15 5.8 37.55 5.4 38.1 5.3 L39.05 5.4 M28.85 26.95 L27.15 26.6 26.15 26.4 25.4 25.55 27.95 25.75 28.85 26.95 M11.35 27.5 L9.95 27.95 Q10.05 27.5 10.3 27.15 L11.9 26.55 11.35 27.5 M34.35 7.7 L35.0 7.25 36.1 7.2 35.4 7.7 35.05 7.7 34.35 7.7 M31.8 9.45 L32.85 8.7 34.05 8.8 Q33.55 9.15 33.2 9.45 L31.8 9.45 M16.65 10.3 L15.35 10.45 14.8 10.55 15.1 10.1 15.25 10.05 15.35 10.05 16.8 9.9 16.65 10.2 16.65 10.3 M11.3 11.4 L11.05 11.4 10.4 11.65 11.15 11.0 12.25 10.7 Q11.9 10.95 11.65 11.15 L11.3 11.4 M17.35 8.8 L17.05 9.15 15.95 9.25 16.2 9.0 16.25 8.9 17.35 8.8 M21.5 23.0 L23.0 23.0 24.7 23.05 24.75 23.15 26.45 24.35 24.5 24.1 23.85 24.05 23.55 24.05 Q22.5 23.25 21.5 23.0 M12.3 24.15 L13.05 24.0 Q13.55 23.7 14.2 23.7 13.8 23.95 13.5 24.5 L12.8 24.6 11.65 24.95 12.3 24.15 M13.75 9.25 L14.65 9.1 14.3 9.35 14.15 9.45 13.1 9.65 Q13.35 9.4 13.75 9.25" fill="#aa8017" fill-rule="evenodd" stroke="none"/>
    <path d="M55.4 22.4 L55.35 22.45 Q55.2 26.55 54.65 29.15 L52.5 34.9 50.7 38.45 50.65 38.5 50.05 39.3 48.8 38.2 46.4 36.1 46.6 36.15 46.3 35.0 Q46.0 34.1 46.0 33.4 46.0 30.55 46.95 28.25 48.15 25.25 50.2 26.0 L50.2 25.8 48.5 24.5 46.8 23.2 48.85 20.6 49.75 19.6 51.0 20.25 55.4 22.4 M44.6 16.95 L44.95 17.7 Q45.0 18.5 43.4 21.05 L42.7 22.05 41.8 23.15 43.05 24.95 43.55 26.2 43.65 27.05 43.7 27.4 43.25 32.55 43.15 33.15 42.85 34.65 41.25 34.0 41.2 34.0 39.8 33.55 37.55 32.8 33.9 31.9 30.65 31.15 30.65 30.9 30.5 29.95 36.65 31.35 38.3 31.8 Q39.4 30.15 39.25 28.4 38.75 24.45 30.2 21.6 L27.85 20.9 27.1 20.7 Q22.15 19.3 17.65 19.3 L15.8 19.3 Q11.8 19.35 9.2 20.35 L9.05 20.4 Q5.9 21.7 3.95 24.6 L3.95 24.2 4.15 23.35 Q4.35 22.4 5.85 20.2 4.85 19.55 4.9 19.1 L5.3 19.1 Q7.5 19.1 11.65 17.55 13.75 16.65 15.7 16.3 L18.95 16.0 Q22.45 16.0 26.7 17.85 L28.95 18.75 Q32.3 19.7 35.75 19.8 37.45 19.8 38.85 18.85 40.35 17.7 40.15 16.0 L39.25 14.05 41.35 15.35 41.9 15.65 Q42.55 15.8 44.0 16.65 L44.45 16.9 44.6 16.95 M9.3 30.05 L9.1 31.2 Q9.05 31.1 8.95 31.25 7.55 31.6 6.45 32.3 L6.35 32.35 5.85 32.65 5.5 32.75 5.05 33.15 4.95 32.9 4.7 32.5 Q5.0 32.2 5.4 32.1 6.1 31.6 6.75 31.35 L8.3 30.5 9.3 30.05 M46.6 36.15 L46.6 36.2 46.8 36.2 46.6 36.15" fill="#c6d5ff" fill-rule="evenodd" stroke="none"/>
    <path d="M44.6 16.95 L46.8 18.1 47.65 18.5 49.75 19.6 48.85 20.6 46.8 23.2 48.5 24.5 50.2 25.8 50.2 26.0 Q48.15 25.25 46.95 28.25 46.0 30.55 46.0 33.4 46.0 34.1 46.3 35.0 L46.6 36.15 46.4 36.1 46.1 35.9 45.4 35.65 44.2 35.25 Q43.4 34.8 42.85 34.65 L43.15 33.15 43.25 32.55 43.7 27.4 43.65 27.05 43.55 26.2 43.05 24.95 41.8 23.15 42.7 22.05 43.4 21.05 Q45.0 18.5 44.95 17.7 L44.6 16.95 M46.6 36.15 L46.8 36.2 46.6 36.2 46.6 36.15" fill="#91a0cb" fill-rule="evenodd" stroke="none"/>
    <path d="M30.5 29.95 L28.85 26.95 27.95 25.75 27.05 24.8 26.45 24.35 24.75 23.15 24.7 23.05 Q21.5 21.25 17.45 21.7 L16.95 21.75 15.85 22.0 Q13.8 22.55 12.3 24.15 L11.65 24.95 11.2 25.6 10.3 27.15 Q10.05 27.5 9.95 27.95 9.5 28.9 9.3 30.05 L8.3 30.5 6.75 31.35 Q6.1 31.6 5.4 32.1 5.0 32.2 4.7 32.5 4.2 31.45 4.1 30.45 L4.0 30.25 Q3.7 27.65 3.9 25.65 3.85 25.15 3.95 24.8 L3.95 24.6 Q5.9 21.7 9.05 20.4 L9.2 20.35 Q11.8 19.35 15.8 19.3 L17.65 19.3 Q22.15 19.3 27.1 20.7 L27.85 20.9 30.2 21.6 Q38.75 24.45 39.25 28.4 39.4 30.15 38.3 31.8 L36.65 31.35 30.5 29.95 M7.3 14.75 L7.35 14.7 8.7 14.2 13.35 12.45 14.9 11.95 15.45 12.6 Q16.0 13.15 16.9 13.6 18.75 14.35 21.2 14.45 L23.15 14.35 25.15 13.9 28.6 12.7 31.4 11.55 35.05 12.4 36.45 12.7 37.85 13.3 38.75 13.75 39.05 13.9 39.25 14.05 40.15 16.0 Q40.35 17.7 38.85 18.85 37.45 19.8 35.75 19.8 32.3 19.7 28.95 18.75 L26.7 17.85 Q22.45 16.0 18.95 16.0 L15.7 16.3 Q13.75 16.65 11.65 17.55 7.5 19.1 5.3 19.1 L4.9 19.1 4.9 19.0 Q4.95 18.5 5.3 17.65 5.75 16.4 6.15 15.8 L6.9 14.9 7.05 14.85 7.3 14.75" fill="#ffffff" fill-rule="evenodd" stroke="none"/>
    <path d="M55.35 22.45 L56.55 22.95 56.8 23.0 56.3 26.6 54.95 31.9 Q54.25 33.9 52.0 37.65 L50.6 39.8 49.95 40.65 49.9 40.45 49.75 39.65 49.8 39.6 50.05 39.3 50.65 38.5 50.7 38.45 52.5 34.9 54.65 29.15 Q55.2 26.55 55.35 22.45 M3.9 33.85 Q3.25 32.45 2.65 29.8 2.15 27.55 2.15 26.65 L2.2 26.3 4.75 20.45 3.6 19.3 Q4.75 16.8 6.8 14.55 L7.05 14.85 6.9 14.9 6.15 15.8 Q5.75 16.4 5.3 17.65 4.95 18.5 4.9 19.0 L4.9 19.1 Q4.85 19.55 5.85 20.2 4.35 22.4 4.15 23.35 L3.95 24.2 3.95 24.6 3.95 24.8 Q3.85 25.15 3.9 25.65 3.7 27.65 4.0 30.25 L4.1 30.45 Q4.2 31.45 4.7 32.5 L4.95 32.9 5.05 33.15 5.05 33.2 4.7 33.4 3.9 33.85" fill="#455687" fill-rule="evenodd" stroke="none"/>
    <path d="M17.1 22.4 L17.6 22.35 18.9 23.05 15.9 23.35 Q15.8 23.25 15.8 23.4 15.8 23.2 15.9 23.25 16.6 22.5 17.1 22.4 M13.65 26.05 Q13.95 25.3 14.95 24.3 L15.1 24.15 15.95 24.05 20.2 23.85 21.65 25.3 16.05 25.6 13.65 26.05 M22.0 26.15 L22.0 26.6 22.0 27.25 20.75 27.35 19.8 27.35 16.15 27.4 15.05 27.4 13.75 27.35 13.35 27.05 16.05 26.55 21.95 26.15 22.0 26.15" fill="#fad579" fill-rule="evenodd" stroke="none"/>
  </g>
</svg>
